…
``` r
ing = data.frame(ingredientesordenados)
ing= add_rownames(ing, var= "ingredientes")
```

    ## Warning: `add_rownames()` was deprecated in dplyr 1.0.0.
    ## Please use `tibble::rownames_to_column()` instead.

``` r
ing
```

    ## # A tibble: 55 x 2
    ##    ingredientes ingredientesordenados
    ##    <chr>                        <dbl>
    ##  1 queso                           33
    ##  2 cebolla                         22
    ##  3 mayonesa                        19
    ##  4 tomate                          18
    ##  5 pan                             14
    ##  6 tocino                          12
    ##  7 hamburguesa                     11
    ##  8 morada                           7
    ##  9 carne                            7
    ## 10 ajo                              6
    ## # ... with 45 more rows
…
